[
  {
    "line": 2,
    "elements": [
      {
        "before": [
          {
            "result": {
              "duration": 5249583,
              "status": "passed"
            },
            "match": {
              "location": "CommonSteps.PreSetup(Scenario)"
            }
          }
        ],
        "line": 5,
        "name": "Verify that leads are created and appear in the Contact related list with user ICMA-RC Advisory Services",
        "description": "",
        "id": "setup-leads-for-roll-in,-retention-and-advisory-service-process;verify-that-leads-are-created-and-appear-in-the-contact-related-list-with-user-icma-rc-advisory-services",
        "after": [
          {
            "result": {
              "duration": 1242555363,
              "status": "passed"
            },
            "match": {
              "location": "CommonSteps.Close(Scenario)"
            }
          }
        ],
        "type": "scenario",
        "keyword": "Scenario",
        "steps": [
          {
            "result": {
              "duration": 82639688468,
              "status": "passed"
            },
            "line": 6,
            "name": "I have logged into salesforce with a \"ICMA-RC Advisory Services\" profile",
            "match": {
              "arguments": [
                {
                  "val": "ICMA-RC Advisory Services",
                  "offset": 38
                }
              ],
              "location": "CommonSteps.i_have_logged_into_salesforse_with_a_profile(String)"
            },
            "keyword": "Given "
          },
          {
            "result": {
              "duration": 33139392704,
              "status": "passed"
            },
            "line": 7,
            "name": "I am in the \"Advisory Services\" app",
            "match": {
              "arguments": [
                {
                  "val": "Advisory Services",
                  "offset": 13
                }
              ],
              "location": "CommonSteps.i_am_in_the_app(String)"
            },
            "keyword": "And "
          },
          {
            "result": {
              "duration": 188939176908,
              "status": "passed"
            },
            "line": 8,
            "name": "I select \"All Contacts\" from Contacts",
            "match": {
              "arguments": [
                {
                  "val": "All Contacts",
                  "offset": 10
                }
              ],
              "location": "ContactsByTypeSteps.i_select_All_Contacts_Plan_Contacts_from_Contacts(String)"
            },
            "keyword": "And "
          },
          {
            "result": {
              "duration": 30033343392,
              "error_message": "java.lang.AssertionError: Successfully clicked on the participant name- Advisory Services\n\tat org.testng.Assert.fail(Assert.java:94)\n\tat com.orasi.utils.TestReporter.assertTrue(TestReporter.java:229)\n\tat com.icmarc.salesforce.sales.ContactsByTypeSteps.I_click_on_the_name_that_belongs_to_participant_type_for_advisory_Services(ContactsByTypeSteps.java:220)\n\tat ✽.Then I click on the name that belongs to participant type for advisory Services(/var/lib/jenkins/workspace/QA_Review/src/test/resources/features/icmarc/salesforce/sales/US7246C.feature:9)\n",
              "status": "failed"
            },
            "line": 9,
            "name": "I click on the name that belongs to participant type for advisory Services",
            "match": {
              "location": "ContactsByTypeSteps.I_click_on_the_name_that_belongs_to_participant_type_for_advisory_Services()"
            },
            "keyword": "Then "
          },
          {
            "result": {
              "status": "skipped"
            },
            "line": 10,
            "name": "I click on New Lead",
            "match": {
              "location": "SalesSteps.I_click_on_New_Lead()"
            },
            "keyword": "And "
          },
          {
            "result": {
              "status": "skipped"
            },
            "line": 11,
            "name": "I select the lead type \"Roll-In\" from contatcs",
            "match": {
              "arguments": [
                {
                  "val": "Roll-In",
                  "offset": 24
                }
              ],
              "location": "SalesSteps.I_select_the_lead_type_from_contatcs(String)"
            },
            "keyword": "Then "
          },
          {
            "result": {
              "status": "skipped"
            },
            "line": 12,
            "name": "I click on create",
            "match": {
              "location": "SalesSteps.i_click_on_create()"
            },
            "keyword": "And "
          },
          {
            "result": {
              "status": "skipped"
            },
            "output": [
              "screenshot-testresults/US7246-TC4494--01092019-161119885.png"
            ],
            "line": 13,
            "name": "I verify that created lead appear in the leads list",
            "match": {
              "location": "SalesSteps.i_verify_that_created_lead_appear_in_the_leads_list()"
            },
            "keyword": "Then "
          }
        ],
        "tags": [
          {
            "line": 4,
            "name": "@TC4494"
          }
        ]
      },
      {
        "before": [
          {
            "result": {
              "duration": 215372,
              "status": "passed"
            },
            "match": {
              "location": "CommonSteps.PreSetup(Scenario)"
            }
          }
        ],
        "line": 16,
        "name": "Verify that leads are created and appear in the Contact related list with user Client services Admin profile",
        "description": "",
        "id": "setup-leads-for-roll-in,-retention-and-advisory-service-process;verify-that-leads-are-created-and-appear-in-the-contact-related-list-with-user-client-services-admin-profile",
        "after": [
          {
            "result": {
              "duration": 1274028731,
              "status": "passed"
            },
            "match": {
              "location": "CommonSteps.Close(Scenario)"
            }
          }
        ],
        "type": "scenario",
        "keyword": "Scenario",
        "steps": [
          {
            "result": {
              "duration": 213328894149,
              "status": "passed"
            },
            "line": 17,
            "name": "I have logged into salesforce with a \"ICMA-RC Client Services Admin\" profile",
            "match": {
              "arguments": [
                {
                  "val": "ICMA-RC Client Services Admin",
                  "offset": 38
                }
              ],
              "location": "CommonSteps.i_have_logged_into_salesforse_with_a_profile(String)"
            },
            "keyword": "Given "
          },
          {
            "result": {
              "duration": 60563515243,
              "status": "passed"
            },
            "line": 18,
            "name": "I am in the \"Sales\" app",
            "match": {
              "arguments": [
                {
                  "val": "Sales",
                  "offset": 13
                }
              ],
              "location": "CommonSteps.i_am_in_the_app(String)"
            },
            "keyword": "And "
          },
          {
            "result": {
              "duration": 98325269437,
              "status": "passed"
            },
            "line": 19,
            "name": "I navigate to the Contacts Page",
            "match": {
              "location": "ServiceConsoleSteps.i_navigate_to_the_Contacts_page()"
            },
            "keyword": "And "
          },
          {
            "result": {
              "duration": 34537420905,
              "status": "passed"
            },
            "line": 20,
            "name": "I change the Contacts Page view to \"All Contacts\"",
            "match": {
              "arguments": [
                {
                  "val": "All Contacts",
                  "offset": 36
                }
              ],
              "location": "ServiceConsoleSteps.i_change_the_Contacts_Page_view_to(String)"
            },
            "keyword": "And "
          },
          {
            "result": {
              "duration": 867182720,
              "status": "passed"
            },
            "line": 21,
            "name": "I click on a participant related to that Contact",
            "match": {
              "location": "ServiceConsoleSteps.s()"
            },
            "keyword": "Then "
          },
          {
            "result": {
              "duration": 231102978533,
              "error_message": "org.openqa.selenium.NoSuchElementException: Failed locate element [ By.xpath: //img[@title\u003d\u0027Show Feed\u0027]/following::span[contains(text(),\u0027Show Feed\u0027)] ]\nFor documentation on this error, please visit: http://seleniumhq.org/exceptions/no_such_element.html\nBuild info: version: \u00273.14.0\u0027, revision: \u0027aacccce0\u0027, time: \u00272018-08-02T20:19:58.91Z\u0027\nSystem info: host: \u0027taframework.icmarc.org\u0027, ip: \u002710.153.2.33\u0027, os.name: \u0027Linux\u0027, os.arch: \u0027amd64\u0027, os.version: \u00273.10.0-693.21.1.el7.x86_64\u0027, java.version: \u00271.8.0_161\u0027\nDriver info: driver.version: unknown\n\tat com.orasi.web.webelements.impl.ElementImpl.reload(ElementImpl.java:1326)\n\tat com.orasi.web.webelements.impl.ElementImpl.getWrappedElement(ElementImpl.java:335)\n\tat com.orasi.web.webelements.impl.ElementImpl.jsClick(ElementImpl.java:94)\n\tat com.icmarc.salesforce.sales.SalesLeadPage.clickNewLeadLinkFrmMore(SalesLeadPage.java:313)\n\tat com.icmarc.salesforce.sales.SalesSteps.I_click_on_New_Lead(SalesSteps.java:271)\n\tat ✽.And I click on New Lead(/var/lib/jenkins/workspace/QA_Review/src/test/resources/features/icmarc/salesforce/sales/US7246C.feature:22)\n",
              "status": "failed"
            },
            "line": 22,
            "name": "I click on New Lead",
            "match": {
              "location": "SalesSteps.I_click_on_New_Lead()"
            },
            "keyword": "And "
          },
          {
            "result": {
              "status": "skipped"
            },
            "line": 23,
            "name": "I select the lead type \"Roll-In\" from contatcs",
            "match": {
              "arguments": [
                {
                  "val": "Roll-In",
                  "offset": 24
                }
              ],
              "location": "SalesSteps.I_select_the_lead_type_from_contatcs(String)"
            },
            "keyword": "Then "
          },
          {
            "result": {
              "status": "skipped"
            },
            "line": 24,
            "name": "I click on create",
            "match": {
              "location": "SalesSteps.i_click_on_create()"
            },
            "keyword": "And "
          },
          {
            "result": {
              "status": "skipped"
            },
            "output": [
              "screenshot-testresults/US7246-TC4429--01092019-162159902.png"
            ],
            "line": 25,
            "name": "I verify the created lead appear in the leads list",
            "match": {
              "location": "SalesSteps.i_verify_created_lead_appear_in_the_leads_list()"
            },
            "keyword": "Then "
          }
        ],
        "tags": [
          {
            "line": 15,
            "name": "@TC4429"
          }
        ]
      },
      {
        "before": [
          {
            "result": {
              "duration": 132365,
              "status": "passed"
            },
            "match": {
              "location": "CommonSteps.PreSetup(Scenario)"
            }
          }
        ],
        "line": 38,
        "name": "Validate the type of lead can create Participant lead with user \"ICMA-RC Client Services\"",
        "description": "",
        "id": "setup-leads-for-roll-in,-retention-and-advisory-service-process;validate-the-type-of-lead-can-create-participant-lead-with-user-\"\u003cusers\u003e\";;2",
        "after": [
          {
            "result": {
              "duration": 1294159445,
              "status": "passed"
            },
            "match": {
              "location": "CommonSteps.Close(Scenario)"
            }
          }
        ],
        "type": "scenario",
        "keyword": "Scenario Outline",
        "steps": [
          {
            "result": {
              "duration": 113692664210,
              "status": "passed"
            },
            "line": 29,
            "name": "I have logged into salesforce with a \"ICMA-RC Client Services\" profile",
            "match": {
              "arguments": [
                {
                  "val": "ICMA-RC Client Services",
                  "offset": 38
                }
              ],
              "location": "CommonSteps.i_have_logged_into_salesforse_with_a_profile(String)"
            },
            "matchedColumns": [
              0
            ],
            "keyword": "Given "
          },
          {
            "result": {
              "duration": 32196585802,
              "status": "passed"
            },
            "line": 30,
            "name": "I am in the \"Service Console\" app",
            "match": {
              "arguments": [
                {
                  "val": "Service Console",
                  "offset": 13
                }
              ],
              "location": "CommonSteps.i_am_in_the_app(String)"
            },
            "keyword": "And "
          },
          {
            "result": {
              "duration": 61520798740,
              "error_message": "com.orasi.web.exceptions.ElementNotFoundInFrameException: Automation Error: Element [ By.xpath: //span[(@class\u003d\u0027x-menu-item-text\u0027) and (.\u003d\u0027Leads\u0027)] ] is not FOUND IN FRAME on the page after [ 30.738 ] seconds.\nBuild info: version: \u00273.14.0\u0027, revision: \u0027aacccce0\u0027, time: \u00272018-08-02T20:19:58.91Z\u0027\nBrowser info: name: \u0027chrome\u0027, version: \u002768.0.3440.106\u0027, os.info: \u0027LINUX 3.10\u0027, driver session id: \u002759c1a28a3446e0f3ea0dd041e46e869c\u0027\nSelenium Node info: hostname: \u0027N/A\u0027, port: \u0027N/A\u0027, session id: \u002759c1a28a3446e0f3ea0dd041e46e869c\u0027\n\tat com.orasi.web.webelements.impl.ElementImpl.syncInFrame(ElementImpl.java:1379)\n\tat sun.reflect.GeneratedMethodAccessor10.invoke(Unknown Source)\n\tat sun.reflect.DelegatingMethodAccessorImpl.invoke(DelegatingMethodAccessorImpl.java:43)\n\tat java.lang.reflect.Method.invoke(Method.java:498)\n\tat com.orasi.web.webelements.impl.internal.ElementHandler.invoke(ElementHandler.java:102)\n\tat com.sun.proxy.$Proxy26.syncInFrame(Unknown Source)\n\tat com.icmarc.salesforce.serviceconsole.ServiceConsoleSearchPage.NavToLeadsPage(ServiceConsoleSearchPage.java:538)\n\tat com.icmarc.salesforce.serviceconsole.ServiceConsoleSteps.i_navigate_to_the_Leadss_page(ServiceConsoleSteps.java:1096)\n\tat ✽.Then I navigate to the Leads Page(/var/lib/jenkins/workspace/QA_Review/src/test/resources/features/icmarc/salesforce/sales/US7246C.feature:31)\n",
              "status": "failed"
            },
            "line": 31,
            "name": "I navigate to the Leads Page",
            "match": {
              "location": "ServiceConsoleSteps.i_navigate_to_the_Leadss_page()"
            },
            "keyword": "Then "
          },
          {
            "result": {
              "status": "skipped"
            },
            "line": 32,
            "name": "I create new lead of record type \"Participant Lead\"",
            "match": {
              "arguments": [
                {
                  "val": "Participant Lead",
                  "offset": 34
                }
              ],
              "location": "SalesSteps.i_create_new_lead_of_record_type(String)"
            },
            "keyword": "And "
          },
          {
            "result": {
              "status": "skipped"
            },
            "line": 33,
            "name": "I select the Lead Status \"Open\"",
            "match": {
              "arguments": [
                {
                  "val": "Open",
                  "offset": 26
                }
              ],
              "location": "SalesSteps.i_select_the_Lead_Status(String)"
            },
            "keyword": "Then "
          },
          {
            "result": {
              "status": "skipped"
            },
            "line": 34,
            "name": "I select the lead type \"Roll-In\"",
            "match": {
              "arguments": [
                {
                  "val": "Roll-In",
                  "offset": 24
                }
              ],
              "location": "SalesSteps.I_select_the_lead_type_Roll_In(String)"
            },
            "keyword": "And "
          },
          {
            "result": {
              "status": "skipped"
            },
            "output": [
              "screenshot-testresults/US7246-TC4436--01092019-162528766.png"
            ],
            "line": 35,
            "name": "I saved the created lead",
            "match": {
              "location": "SalesSteps.i_saved_the_created_lead()"
            },
            "keyword": "Then "
          }
        ],
        "tags": [
          {
            "line": 1,
            "name": "@sowmiyaPI4"
          },
          {
            "line": 1,
            "name": "@Leads"
          },
          {
            "line": 1,
            "name": "@complete"
          },
          {
            "line": 27,
            "name": "@TC4436"
          },
          {
            "line": 1,
            "name": "@US7246"
          }
        ]
      },
      {
        "before": [
          {
            "result": {
              "duration": 135206,
              "status": "passed"
            },
            "match": {
              "location": "CommonSteps.PreSetup(Scenario)"
            }
          }
        ],
        "line": 39,
        "name": "Validate the type of lead can create Participant lead with user \"ICMA-RC Client Services Mgr / Director / VP\"",
        "description": "",
        "id": "setup-leads-for-roll-in,-retention-and-advisory-service-process;validate-the-type-of-lead-can-create-participant-lead-with-user-\"\u003cusers\u003e\";;3",
        "after": [
          {
            "result": {
              "duration": 1273675885,
              "status": "passed"
            },
            "match": {
              "location": "CommonSteps.Close(Scenario)"
            }
          }
        ],
        "type": "scenario",
        "keyword": "Scenario Outline",
        "steps": [
          {
            "result": {
              "duration": 144700977329,
              "status": "passed"
            },
            "line": 29,
            "name": "I have logged into salesforce with a \"ICMA-RC Client Services Mgr / Director / VP\" profile",
            "match": {
              "arguments": [
                {
                  "val": "ICMA-RC Client Services Mgr / Director / VP",
                  "offset": 38
                }
              ],
              "location": "CommonSteps.i_have_logged_into_salesforse_with_a_profile(String)"
            },
            "matchedColumns": [
              0
            ],
            "keyword": "Given "
          },
          {
            "result": {
              "duration": 62083231343,
              "status": "passed"
            },
            "line": 30,
            "name": "I am in the \"Service Console\" app",
            "match": {
              "arguments": [
                {
                  "val": "Service Console",
                  "offset": 13
                }
              ],
              "location": "CommonSteps.i_am_in_the_app(String)"
            },
            "keyword": "And "
          },
          {
            "result": {
              "duration": 61211220951,
              "error_message": "com.orasi.web.exceptions.ElementNotFoundInFrameException: Automation Error: Element [ By.xpath: //span[(@class\u003d\u0027x-menu-item-text\u0027) and (.\u003d\u0027Leads\u0027)] ] is not FOUND IN FRAME on the page after [ 30.429 ] seconds.\nBuild info: version: \u00273.14.0\u0027, revision: \u0027aacccce0\u0027, time: \u00272018-08-02T20:19:58.91Z\u0027\nBrowser info: name: \u0027chrome\u0027, version: \u002768.0.3440.106\u0027, os.info: \u0027LINUX 3.10\u0027, driver session id: \u00276e30df7353fe87f5d507511067465b68\u0027\nSelenium Node info: hostname: \u0027N/A\u0027, port: \u0027N/A\u0027, session id: \u00276e30df7353fe87f5d507511067465b68\u0027\n\tat com.orasi.web.webelements.impl.ElementImpl.syncInFrame(ElementImpl.java:1379)\n\tat sun.reflect.GeneratedMethodAccessor10.invoke(Unknown Source)\n\tat sun.reflect.DelegatingMethodAccessorImpl.invoke(DelegatingMethodAccessorImpl.java:43)\n\tat java.lang.reflect.Method.invoke(Method.java:498)\n\tat com.orasi.web.webelements.impl.internal.ElementHandler.invoke(ElementHandler.java:102)\n\tat com.sun.proxy.$Proxy26.syncInFrame(Unknown Source)\n\tat com.icmarc.salesforce.serviceconsole.ServiceConsoleSearchPage.NavToLeadsPage(ServiceConsoleSearchPage.java:538)\n\tat com.icmarc.salesforce.serviceconsole.ServiceConsoleSteps.i_navigate_to_the_Leadss_page(ServiceConsoleSteps.java:1096)\n\tat ✽.Then I navigate to the Leads Page(/var/lib/jenkins/workspace/QA_Review/src/test/resources/features/icmarc/salesforce/sales/US7246C.feature:31)\n",
              "status": "failed"
            },
            "line": 31,
            "name": "I navigate to the Leads Page",
            "match": {
              "location": "ServiceConsoleSteps.i_navigate_to_the_Leadss_page()"
            },
            "keyword": "Then "
          },
          {
            "result": {
              "status": "skipped"
            },
            "line": 32,
            "name": "I create new lead of record type \"Participant Lead\"",
            "match": {
              "arguments": [
                {
                  "val": "Participant Lead",
                  "offset": 34
                }
              ],
              "location": "SalesSteps.i_create_new_lead_of_record_type(String)"
            },
            "keyword": "And "
          },
          {
            "result": {
              "status": "skipped"
            },
            "line": 33,
            "name": "I select the Lead Status \"Open\"",
            "match": {
              "arguments": [
                {
                  "val": "Open",
                  "offset": 26
                }
              ],
              "location": "SalesSteps.i_select_the_Lead_Status(String)"
            },
            "keyword": "Then "
          },
          {
            "result": {
              "status": "skipped"
            },
            "line": 34,
            "name": "I select the lead type \"Roll-In\"",
            "match": {
              "arguments": [
                {
                  "val": "Roll-In",
                  "offset": 24
                }
              ],
              "location": "SalesSteps.I_select_the_lead_type_Roll_In(String)"
            },
            "keyword": "And "
          },
          {
            "result": {
              "status": "skipped"
            },
            "output": [
              "screenshot-testresults/US7246-TC4436--01092019-162958047.png"
            ],
            "line": 35,
            "name": "I saved the created lead",
            "match": {
              "location": "SalesSteps.i_saved_the_created_lead()"
            },
            "keyword": "Then "
          }
        ],
        "tags": [
          {
            "line": 1,
            "name": "@sowmiyaPI4"
          },
          {
            "line": 1,
            "name": "@Leads"
          },
          {
            "line": 1,
            "name": "@complete"
          },
          {
            "line": 27,
            "name": "@TC4436"
          },
          {
            "line": 1,
            "name": "@US7246"
          }
        ]
      },
      {
        "before": [
          {
            "result": {
              "duration": 162545,
              "status": "passed"
            },
            "match": {
              "location": "CommonSteps.PreSetup(Scenario)"
            }
          }
        ],
        "line": 40,
        "name": "Validate the type of lead can create Participant lead with user \"ICMA-RC Operational Associate\"",
        "description": "",
        "id": "setup-leads-for-roll-in,-retention-and-advisory-service-process;validate-the-type-of-lead-can-create-participant-lead-with-user-\"\u003cusers\u003e\";;4",
        "after": [
          {
            "result": {
              "duration": 1266480748,
              "status": "passed"
            },
            "match": {
              "location": "CommonSteps.Close(Scenario)"
            }
          }
        ],
        "type": "scenario",
        "keyword": "Scenario Outline",
        "steps": [
          {
            "result": {
              "duration": 143432369219,
              "status": "passed"
            },
            "line": 29,
            "name": "I have logged into salesforce with a \"ICMA-RC Operational Associate\" profile",
            "match": {
              "arguments": [
                {
                  "val": "ICMA-RC Operational Associate",
                  "offset": 38
                }
              ],
              "location": "CommonSteps.i_have_logged_into_salesforse_with_a_profile(String)"
            },
            "matchedColumns": [
              0
            ],
            "keyword": "Given "
          },
          {
            "result": {
              "duration": 62543049093,
              "status": "passed"
            },
            "line": 30,
            "name": "I am in the \"Service Console\" app",
            "match": {
              "arguments": [
                {
                  "val": "Service Console",
                  "offset": 13
                }
              ],
              "location": "CommonSteps.i_am_in_the_app(String)"
            },
            "keyword": "And "
          },
          {
            "result": {
              "duration": 61913041206,
              "error_message": "com.orasi.web.exceptions.ElementNotFoundInFrameException: Automation Error: Element [ By.xpath: //span[(@class\u003d\u0027x-menu-item-text\u0027) and (.\u003d\u0027Leads\u0027)] ] is not FOUND IN FRAME on the page after [ 31.14 ] seconds.\nBuild info: version: \u00273.14.0\u0027, revision: \u0027aacccce0\u0027, time: \u00272018-08-02T20:19:58.91Z\u0027\nBrowser info: name: \u0027chrome\u0027, version: \u002768.0.3440.106\u0027, os.info: \u0027LINUX 3.10\u0027, driver session id: \u0027139b94f6fadad82913894cf430b00595\u0027\nSelenium Node info: hostname: \u0027N/A\u0027, port: \u0027N/A\u0027, session id: \u0027139b94f6fadad82913894cf430b00595\u0027\n\tat com.orasi.web.webelements.impl.ElementImpl.syncInFrame(ElementImpl.java:1379)\n\tat sun.reflect.GeneratedMethodAccessor10.invoke(Unknown Source)\n\tat sun.reflect.DelegatingMethodAccessorImpl.invoke(DelegatingMethodAccessorImpl.java:43)\n\tat java.lang.reflect.Method.invoke(Method.java:498)\n\tat com.orasi.web.webelements.impl.internal.ElementHandler.invoke(ElementHandler.java:102)\n\tat com.sun.proxy.$Proxy26.syncInFrame(Unknown Source)\n\tat com.icmarc.salesforce.serviceconsole.ServiceConsoleSearchPage.NavToLeadsPage(ServiceConsoleSearchPage.java:538)\n\tat com.icmarc.salesforce.serviceconsole.ServiceConsoleSteps.i_navigate_to_the_Leadss_page(ServiceConsoleSteps.java:1096)\n\tat ✽.Then I navigate to the Leads Page(/var/lib/jenkins/workspace/QA_Review/src/test/resources/features/icmarc/salesforce/sales/US7246C.feature:31)\n",
              "status": "failed"
            },
            "line": 31,
            "name": "I navigate to the Leads Page",
            "match": {
              "location": "ServiceConsoleSteps.i_navigate_to_the_Leadss_page()"
            },
            "keyword": "Then "
          },
          {
            "result": {
              "status": "skipped"
            },
            "line": 32,
            "name": "I create new lead of record type \"Participant Lead\"",
            "match": {
              "arguments": [
                {
                  "val": "Participant Lead",
                  "offset": 34
                }
              ],
              "location": "SalesSteps.i_create_new_lead_of_record_type(String)"
            },
            "keyword": "And "
          },
          {
            "result": {
              "status": "skipped"
            },
            "line": 33,
            "name": "I select the Lead Status \"Open\"",
            "match": {
              "arguments": [
                {
                  "val": "Open",
                  "offset": 26
                }
              ],
              "location": "SalesSteps.i_select_the_Lead_Status(String)"
            },
            "keyword": "Then "
          },
          {
            "result": {
              "status": "skipped"
            },
            "line": 34,
            "name": "I select the lead type \"Roll-In\"",
            "match": {
              "arguments": [
                {
                  "val": "Roll-In",
                  "offset": 24
                }
              ],
              "location": "SalesSteps.I_select_the_lead_type_Roll_In(String)"
            },
            "keyword": "And "
          },
          {
            "result": {
              "status": "skipped"
            },
            "output": [
              "screenshot-testresults/US7246-TC4436--01092019-163427214.png"
            ],
            "line": 35,
            "name": "I saved the created lead",
            "match": {
              "location": "SalesSteps.i_saved_the_created_lead()"
            },
            "keyword": "Then "
          }
        ],
        "tags": [
          {
            "line": 1,
            "name": "@sowmiyaPI4"
          },
          {
            "line": 1,
            "name": "@Leads"
          },
          {
            "line": 1,
            "name": "@complete"
          },
          {
            "line": 27,
            "name": "@TC4436"
          },
          {
            "line": 1,
            "name": "@US7246"
          }
        ]
      },
      {
        "before": [
          {
            "result": {
              "duration": 220252,
              "status": "passed"
            },
            "match": {
              "location": "CommonSteps.PreSetup(Scenario)"
            }
          }
        ],
        "line": 54,
        "name": "Verify that leads are created and appear in the Contact related list with user \"ICMA-RC Sales Admin\"",
        "description": "",
        "id": "setup-leads-for-roll-in,-retention-and-advisory-service-process;verify-that-leads-are-created-and-appear-in-the-contact-related-list-with-user-\"\u003cusers\u003e\";;2",
        "after": [
          {
            "result": {
              "duration": 1055557868,
              "status": "passed"
            },
            "match": {
              "location": "CommonSteps.Close(Scenario)"
            }
          }
        ],
        "type": "scenario",
        "keyword": "Scenario Outline",
        "steps": [
          {
            "result": {
              "duration": 75268523366,
              "status": "passed"
            },
            "line": 44,
            "name": "I have logged into salesforce with a \"ICMA-RC Sales Admin\" profile",
            "match": {
              "arguments": [
                {
                  "val": "ICMA-RC Sales Admin",
                  "offset": 38
                }
              ],
              "location": "CommonSteps.i_have_logged_into_salesforse_with_a_profile(String)"
            },
            "matchedColumns": [
              0
            ],
            "keyword": "Given "
          },
          {
            "result": {
              "duration": 33288903104,
              "status": "passed"
            },
            "line": 45,
            "name": "I am in the \"Sales\" app",
            "match": {
              "arguments": [
                {
                  "val": "Sales",
                  "offset": 13
                }
              ],
              "location": "CommonSteps.i_am_in_the_app(String)"
            },
            "keyword": "And "
          },
          {
            "result": {
              "duration": 59296585507,
              "status": "passed"
            },
            "line": 46,
            "name": "I select \"All Contacts\" from Contacts",
            "match": {
              "arguments": [
                {
                  "val": "All Contacts",
                  "offset": 10
                }
              ],
              "location": "ContactsByTypeSteps.i_select_All_Contacts_Plan_Contacts_from_Contacts(String)"
            },
            "keyword": "And "
          },
          {
            "result": {
              "duration": 371497066,
              "status": "passed"
            },
            "line": 47,
            "name": "I click on the name that belongs to participant type",
            "match": {
              "location": "ContactsByTypeSteps.I_click_on_the_name_that_belongs_to_participant_type()"
            },
            "keyword": "Then "
          },
          {
            "result": {
              "duration": 5225790030,
              "status": "passed"
            },
            "line": 48,
            "name": "I click on New Lead",
            "match": {
              "location": "SalesSteps.I_click_on_New_Lead()"
            },
            "keyword": "And "
          },
          {
            "result": {
              "duration": 1716634615,
              "status": "passed"
            },
            "line": 49,
            "name": "I select the lead type \"Roll-In\" from contatcs",
            "match": {
              "arguments": [
                {
                  "val": "Roll-In",
                  "offset": 24
                }
              ],
              "location": "SalesSteps.I_select_the_lead_type_from_contatcs(String)"
            },
            "keyword": "Then "
          },
          {
            "result": {
              "duration": 2639844695,
              "status": "passed"
            },
            "line": 50,
            "name": "I click on create",
            "match": {
              "location": "SalesSteps.i_click_on_create()"
            },
            "keyword": "And "
          },
          {
            "result": {
              "duration": 5985507150,
              "status": "passed"
            },
            "line": 51,
            "name": "I verify that created lead appear in the leads list",
            "match": {
              "location": "SalesSteps.i_verify_that_created_lead_appear_in_the_leads_list()"
            },
            "keyword": "Then "
          }
        ],
        "tags": [
          {
            "line": 1,
            "name": "@sowmiyaPI4"
          },
          {
            "line": 42,
            "name": "@TC4421"
          },
          {
            "line": 1,
            "name": "@Leads"
          },
          {
            "line": 1,
            "name": "@complete"
          },
          {
            "line": 1,
            "name": "@US7246"
          }
        ]
      },
      {
        "before": [
          {
            "result": {
              "duration": 114187,
              "status": "passed"
            },
            "match": {
              "location": "CommonSteps.PreSetup(Scenario)"
            }
          }
        ],
        "line": 55,
        "name": "Verify that leads are created and appear in the Contact related list with user \"ICMA-RC API User\"",
        "description": "",
        "id": "setup-leads-for-roll-in,-retention-and-advisory-service-process;verify-that-leads-are-created-and-appear-in-the-contact-related-list-with-user-\"\u003cusers\u003e\";;3",
        "after": [
          {
            "result": {
              "duration": 1055801530,
              "status": "passed"
            },
            "match": {
              "location": "CommonSteps.Close(Scenario)"
            }
          }
        ],
        "type": "scenario",
        "keyword": "Scenario Outline",
        "steps": [
          {
            "result": {
              "duration": 74775426623,
              "status": "passed"
            },
            "line": 44,
            "name": "I have logged into salesforce with a \"ICMA-RC API User\" profile",
            "match": {
              "arguments": [
                {
                  "val": "ICMA-RC API User",
                  "offset": 38
                }
              ],
              "location": "CommonSteps.i_have_logged_into_salesforse_with_a_profile(String)"
            },
            "matchedColumns": [
              0
            ],
            "keyword": "Given "
          },
          {
            "result": {
              "duration": 32893459700,
              "status": "passed"
            },
            "line": 45,
            "name": "I am in the \"Sales\" app",
            "match": {
              "arguments": [
                {
                  "val": "Sales",
                  "offset": 13
                }
              ],
              "location": "CommonSteps.i_am_in_the_app(String)"
            },
            "keyword": "And "
          },
          {
            "result": {
              "duration": 59395097648,
              "status": "passed"
            },
            "line": 46,
            "name": "I select \"All Contacts\" from Contacts",
            "match": {
              "arguments": [
                {
                  "val": "All Contacts",
                  "offset": 10
                }
              ],
              "location": "ContactsByTypeSteps.i_select_All_Contacts_Plan_Contacts_from_Contacts(String)"
            },
            "keyword": "And "
          },
          {
            "result": {
              "duration": 246838574,
              "status": "passed"
            },
            "line": 47,
            "name": "I click on the name that belongs to participant type",
            "match": {
              "location": "ContactsByTypeSteps.I_click_on_the_name_that_belongs_to_participant_type()"
            },
            "keyword": "Then "
          },
          {
            "result": {
              "duration": 65931808598,
              "status": "passed"
            },
            "line": 48,
            "name": "I click on New Lead",
            "match": {
              "location": "SalesSteps.I_click_on_New_Lead()"
            },
            "keyword": "And "
          },
          {
            "result": {
              "duration": 1743996876,
              "status": "passed"
            },
            "line": 49,
            "name": "I select the lead type \"Roll-In\" from contatcs",
            "match": {
              "arguments": [
                {
                  "val": "Roll-In",
                  "offset": 24
                }
              ],
              "location": "SalesSteps.I_select_the_lead_type_from_contatcs(String)"
            },
            "keyword": "Then "
          },
          {
            "result": {
              "duration": 2640230039,
              "status": "passed"
            },
            "line": 50,
            "name": "I click on create",
            "match": {
              "location": "SalesSteps.i_click_on_create()"
            },
            "keyword": "And "
          },
          {
            "result": {
              "duration": 6029204669,
              "status": "passed"
            },
            "line": 51,
            "name": "I verify that created lead appear in the leads list",
            "match": {
              "location": "SalesSteps.i_verify_that_created_lead_appear_in_the_leads_list()"
            },
            "keyword": "Then "
          }
        ],
        "tags": [
          {
            "line": 1,
            "name": "@sowmiyaPI4"
          },
          {
            "line": 42,
            "name": "@TC4421"
          },
          {
            "line": 1,
            "name": "@Leads"
          },
          {
            "line": 1,
            "name": "@complete"
          },
          {
            "line": 1,
            "name": "@US7246"
          }
        ]
      },
      {
        "before": [
          {
            "result": {
              "duration": 105654,
              "status": "passed"
            },
            "match": {
              "location": "CommonSteps.PreSetup(Scenario)"
            }
          }
        ],
        "line": 56,
        "name": "Verify that leads are created and appear in the Contact related list with user \"ICMA-RC Sales Executive SVP/MVP\"",
        "description": "",
        "id": "setup-leads-for-roll-in,-retention-and-advisory-service-process;verify-that-leads-are-created-and-appear-in-the-contact-related-list-with-user-\"\u003cusers\u003e\";;4",
        "after": [
          {
            "result": {
              "duration": 1057021505,
              "status": "passed"
            },
            "match": {
              "location": "CommonSteps.Close(Scenario)"
            }
          }
        ],
        "type": "scenario",
        "keyword": "Scenario Outline",
        "steps": [
          {
            "result": {
              "duration": 75106204897,
              "status": "passed"
            },
            "line": 44,
            "name": "I have logged into salesforce with a \"ICMA-RC Sales Executive SVP/MVP\" profile",
            "match": {
              "arguments": [
                {
                  "val": "ICMA-RC Sales Executive SVP/MVP",
                  "offset": 38
                }
              ],
              "location": "CommonSteps.i_have_logged_into_salesforse_with_a_profile(String)"
            },
            "matchedColumns": [
              0
            ],
            "keyword": "Given "
          },
          {
            "result": {
              "duration": 33250134048,
              "status": "passed"
            },
            "line": 45,
            "name": "I am in the \"Sales\" app",
            "match": {
              "arguments": [
                {
                  "val": "Sales",
                  "offset": 13
                }
              ],
              "location": "CommonSteps.i_am_in_the_app(String)"
            },
            "keyword": "And "
          },
          {
            "result": {
              "duration": 59409229494,
              "status": "passed"
            },
            "line": 46,
            "name": "I select \"All Contacts\" from Contacts",
            "match": {
              "arguments": [
                {
                  "val": "All Contacts",
                  "offset": 10
                }
              ],
              "location": "ContactsByTypeSteps.i_select_All_Contacts_Plan_Contacts_from_Contacts(String)"
            },
            "keyword": "And "
          },
          {
            "result": {
              "duration": 257724873,
              "status": "passed"
            },
            "line": 47,
            "name": "I click on the name that belongs to participant type",
            "match": {
              "location": "ContactsByTypeSteps.I_click_on_the_name_that_belongs_to_participant_type()"
            },
            "keyword": "Then "
          },
          {
            "result": {
              "duration": 4862443858,
              "status": "passed"
            },
            "line": 48,
            "name": "I click on New Lead",
            "match": {
              "location": "SalesSteps.I_click_on_New_Lead()"
            },
            "keyword": "And "
          },
          {
            "result": {
              "duration": 1716690997,
              "status": "passed"
            },
            "line": 49,
            "name": "I select the lead type \"Roll-In\" from contatcs",
            "match": {
              "arguments": [
                {
                  "val": "Roll-In",
                  "offset": 24
                }
              ],
              "location": "SalesSteps.I_select_the_lead_type_from_contatcs(String)"
            },
            "keyword": "Then "
          },
          {
            "result": {
              "duration": 2642685956,
              "status": "passed"
            },
            "line": 50,
            "name": "I click on create",
            "match": {
              "location": "SalesSteps.i_click_on_create()"
            },
            "keyword": "And "
          },
          {
            "result": {
              "duration": 6000097048,
              "status": "passed"
            },
            "line": 51,
            "name": "I verify that created lead appear in the leads list",
            "match": {
              "location": "SalesSteps.i_verify_that_created_lead_appear_in_the_leads_list()"
            },
            "keyword": "Then "
          }
        ],
        "tags": [
          {
            "line": 1,
            "name": "@sowmiyaPI4"
          },
          {
            "line": 42,
            "name": "@TC4421"
          },
          {
            "line": 1,
            "name": "@Leads"
          },
          {
            "line": 1,
            "name": "@complete"
          },
          {
            "line": 1,
            "name": "@US7246"
          }
        ]
      }
    ],
    "name": "Setup Leads for Roll-in, Retention and Advisory Service process",
    "description": "",
    "id": "setup-leads-for-roll-in,-retention-and-advisory-service-process",
    "keyword": "Feature",
    "uri": "/var/lib/jenkins/workspace/QA_Review/src/test/resources/features/icmarc/salesforce/sales/US7246C.feature",
    "tags": [
      {
        "line": 1,
        "name": "@US7246"
      },
      {
        "line": 1,
        "name": "@Leads"
      },
      {
        "line": 1,
        "name": "@complete"
      },
      {
        "line": 1,
        "name": "@sowmiyaPI4"
      }
    ]
  }
]